k_sad_sur = {
	1006.1.1 = {
		liege = e_bulwar
		holder = bulwari0004 # Bavar II szel-Barseen
	}
}

d_sad_sur = {
	1006.1.1 = {
		holder = bulwari0004 # Bavar II szel-Barseen
	}
}

c_sad_sur = {
	1006.1.1 = {
		holder = bulwari0004 # Bavar II szel-Barseen
	}
}
