﻿# Anbennar: commented vanilla stuff

activity_witch_ritual = {
	is_shown = {
		highest_held_title_tier > tier_barony
		is_landed = yes
		trigger_if = {
			limit = {
				is_ai = yes
			}
			is_at_war = no
		}
		exists = house
		house = { has_house_modifier = witch_coven }
	}

	can_start_showing_failures_only = {
		is_available_adult = yes
		activity_witch_ritual_valid_trigger = yes
	}

	is_valid = {
		NOT = {
			has_variable = activity_invalidated
		}
		scope:host = {
			is_landed = yes
			NOT = { is_incapable = yes }
		}
		# If no one shows up
		trigger_if = {
			limit = {
				is_current_phase_active = yes
			}
			has_attending_activity_guests = yes
		}
	}

	on_invalidated = {
		# Host becomes unlanded
		if = {
			limit = {
				scope:host = { is_landed = no }
			}
			scope:activity = {
				activity_type = { save_scope_as = activity_type }
			}
			every_attending_character = {
				trigger_event = activity_system.0320
			}
		}
		if = {
			limit = {
				scope:host = { is_incapable = yes }
			}
			scope:activity = {
				activity_type = { save_scope_as = activity_type }
			}
			scope:host = {
				trigger_event = activity_system.0330
			}
			every_attending_character = {
				limit = { NOT = { this = scope:host } }
				trigger_event = activity_system.0331
			}
		}
		if = { # No one shows up
			limit = {
				has_attending_activity_guests = no
			}
			scope:activity = {
				activity_type = { save_scope_as = activity_type }
				activity_location = { save_scope_as = location }
			}
			scope:host = { trigger_event = activity_system.0100 }
		}
	}

	on_host_death = {
		scope:activity = {
			set_variable = {
				name = activity_invalidated
			}
		}
	}

	province_filter = domain
	ai_province_filter = capital
	wait_time_before_start = { months = 3 }

	###################
	# OPTIONS
	###################

	options = {
	}

	###################
	# PHASES
	###################

	phases = {
		witch_ritual_phase = {
			is_predefined = yes
			
			on_phase_active = {
				if = {
					limit = { this = scope:host }
					scope:activity = { progress_activity_phase_after = { weeks = 2 } }
					# Check that there are guests apart from the feast host.
					if = {
						limit = {
							scope:activity = {
								any_attending_character = {
									count < 1
									NOT = {	this = scope:host }
								}
							}
						}
						# If there are no other guests, throw this event.
						trigger_event = witch.3002
					}
					# If there are guests present
					else = {
						play_music_cue = "mx_cue_sacredrite"
						
						#New guest?
						random = {
							chance = 50
							trigger_event = {
								id = witch.3003
								days = 1
							}
						}

						#Grand ritual (also sends event to every participant based on outcome)
						##After grand ritual, participants can choose what they want to do during the feast
						trigger_event = {
							id = witch.3010
							days = 7
						}
					}
				}
			}

			on_end = {
				# Run conclusion stuff here
				if = {
					limit = { this = scope:host }
					trigger_event = witch.3098
				}
				else = { trigger_event =  witch.3099 }
			}
		}
	}

	max_guest_arrival_delay_time = { months = 8 } # Fellow witches might be far?

	# desc is only shown in debug AI watch window
	ai_will_do = {
		value = 50
		
		# How much do you care about your faith not liking this?
		if = {
			limit = {
				faith = { has_doctrine_parameter = witchcraft_illegal }
				NOT = { has_trait = cynical }
			}
			add = -25
		}
		if = {
			limit = {
				faith = {	
					OR = {
						has_doctrine_parameter = witchcraft_accepted
						has_doctrine = doctrine_witchcraft_virtuous
					}
				}
				NOT = { has_trait = cynical }
			}
			add = 100
		}
		if = {
			limit = {
				faith = {	
					OR = {
						has_doctrine_parameter = witchcraft_accepted
						has_doctrine = doctrine_witchcraft_virtuous
					}
				}
				has_trait = zealous
			}
			add = 150
		}
		if = {
			limit = {
				faith = {	
					NOR = {
						has_doctrine_parameter = witchcraft_accepted
						has_doctrine = doctrine_witchcraft_virtuous
					}
				}
				has_trait = zealous
			}
			add = -100
		}
		
		#Can you actually afford this?
		if = {
			limit = {
				NOT = { can_make_expensive_purchase_trigger = { PRICE = activity_minor_gold_value } }
			}
			add = -50
		}
	}

	ai_check_interval = 60

	ai_will_select_province = {
		value = 10
		if = {
			limit = {
				this = scope:host.capital_province
			}
			add = {
				value = 30
				desc = "Capital Province preferred"
			}
		}
	}
	
	is_location_valid = {
		exists = province_owner
		province_owner.top_liege = scope:host.top_liege
	}

	province_filter = capital
	ai_province_filter = capital

	max_province_icons = 5
	
	cost = {
		gold = {
			add = {
				value = activity_minor_gold_value
				desc = hunt_base_cost
			}
		}
	}

	ui_predicted_cost = {
		gold = {
			# Base Cost
			value = activity_minor_gold_value
			# Make it a multiple of 5 (rounded up)
			divide = 5 
			ceiling = yes 
			multiply = 5
		}
	}
	cooldown = { days = standard_witch_ritual_cooldown_time }
	
	###################
	# ACTIVITY-SPECIFIC PULSES
	###################
	
	pulse_actions = {
		entries = {
			sacrifed_small_animal demonic_chant recited_witchcraft_treatise admire_moon mournful_music praised_horned_god_together apa_communal_prayer apa_silent_contemplation apa_imbued_artifact
		}
		chance_of_no_event = 5
	}

	###################
	# GUEST HANDLING
	###################

	max_guests = 30

	guest_invite_rules = {
		defaults = {
			1 = activity_invite_rule_house_witches
			2 = activity_invite_rule_other_witches
		}
		rules = {
			# MP 
			6 = activity_invite_mp
		}
	}

	can_be_activity_guest = {
		faith = scope:host.faith
		is_adult = yes
		is_available = yes
		save_temporary_scope_as = invited_witch
		#Both know about each other's witch status
		scope:host = {
			knows_about_character_being_witch_trigger = { CHARACTER = scope:invited_witch }
		}
		knows_about_character_being_witch_trigger = { CHARACTER = scope:host }
		#No non-house rivals
		trigger_if = {
			limit = {
				exists = house
				house = scope:host.house
			}
			NOT = { has_relation_rival = scope:host } 
		}
		in_diplomatic_range = scope:host
	}

	host_intents = {
		intents = { worship_devil_intent }
		default = worship_devil_intent
	}

	guest_intents = {
		intents = { worship_devil_intent }
		default = worship_devil_intent
	}

	guest_join_chance = {
		base = 10
		base_activity_modifier = yes

		# Scripted Modifiers
		activity_guest_shared_ai_accept_modifier = yes
	}
	
	on_complete = {
		if = {
			limit = { this = scope:host }
			scope:host = {
				disburse_witch_ritual_host_rewards_effect = yes
			}
		}
	}

	### Graphics
	map_entity = {
		trigger = {
			activity_location.culture = {
				OR = {
					has_graphical_mena_culture_group_trigger = yes
					has_graphical_steppe_culture_group_trigger = yes
					has_graphical_african_culture_group_trigger = yes
				}
			}
		}
		reference = "building_mena_feast_01_entity"
	}

	map_entity = {
		trigger = {
			activity_location.culture = {
				has_graphical_india_culture_group_trigger = yes
			}
		}
		reference = "building_indian_feast_01_entity"
	}
	
	map_entity = "building_western_feast_01_entity"

	# Travel
	# background = { # Bridge # Anbennar
		# trigger = {
			# NOT = { scope:host.location = scope:activity.activity_location }
			# scope:host.location = {
				# is_riverside_province = yes
				# geographical_region = world_europe
				# OR = {
					# terrain = farmlands
					# terrain = plains
					# terrain = mountains
					# terrain = hills
				# }
			# }
		# }
		# texture = "gfx/interface/illustrations/event_scenes/ep2_travel_bridge.dds"
		# environment = "environment_travel_bridge"
		# ambience = "event:/SFX/Events/Backgrounds/mountains_day"
	# }
	
	background = { # Farmland, settled
		trigger = {
			NOT = { scope:host.location = scope:activity.activity_location }
			scope:host.location = {
				terrain = farmlands
				exists = province_owner
			}
		}
		texture = "gfx/interface/illustrations/event_scenes/ep2_travel_farm.dds"
		environment = "environment_travel_farmlands"
		ambience = "event:/SFX/Events/Backgrounds/fields_farms_day"
	}
	background = { # Farmland, unsettled
		trigger = {
			NOT = { scope:host.location = scope:activity.activity_location }
			scope:host.location = {
				terrain = farmlands
				NOT = { exists = province_owner }
			}
		}
		texture = "gfx/interface/illustrations/event_scenes/farms.dds"
		environment = "environment_event_farms"
		ambience = "event:/SFX/Events/Backgrounds/fields_farms_day"
	}

	background = { #Desert, settled
		trigger = {
			NOT = { scope:host.location = scope:activity.activity_location }
			scope:host.location = {
				graphical_wilderness_desert_trigger = yes
				exists = province_owner
			}
		}
		texture = "gfx/interface/illustrations/event_scenes/ep2_travel_desert.dds"
		environment = "environment_travel_desert"
		ambience = "event:/SFX/Events/Backgrounds/desert_day"
	}
	background = { #Desert, unsettled
		trigger = {
			NOT = { scope:host.location = scope:activity.activity_location }
			scope:host.location = {
				graphical_wilderness_desert_trigger = yes
				NOT = { exists = province_owner }
			}
		}
		texture = "gfx/interface/illustrations/event_scenes/desert.dds"
		environment = "environment_event_bp1_desert"
		ambience = "event:/SFX/Events/Backgrounds/desert_day"
	}

	background = { #forest snowy
		trigger = {
			NOT = { scope:host.location = scope:activity.activity_location }
			scope:host.location ?= { hunt_snowy_forest_trigger = yes }
		}
		texture = "gfx/interface/illustrations/event_scenes/ep2_hunt_snowy_forest.dds"
		environment = "environment_hunt_snowy_forest"
		ambience = "event:/SFX/Events/Backgrounds/mountains_day" 
	}

	background = { #forest_pine
		trigger = {
			NOT = { scope:host.location = scope:activity.activity_location }
			scope:host.location = {
				graphical_wilderness_forest_pine_trigger = yes
			}
		}
		texture = "gfx/interface/illustrations/event_scenes/forest_pine.dds"
		environment = "environment_event_forest_pine"
		ambience = "event:/SFX/Events/Backgrounds/coniferous_forest_day"
	}

	background = { #forest
		trigger = {
			NOT = { scope:host.location = scope:activity.activity_location }
			scope:host.location = {
				graphical_wilderness_forest_trigger = yes
			}
		}
		texture = "gfx/interface/illustrations/event_scenes/forest.dds"
		environment = "environment_event_forest"
		ambience = "event:/SFX/Events/Backgrounds/deciduous_forest_day"
	}

	background = { #mountains, settled
		trigger = {
			NOT = { scope:host.location = scope:activity.activity_location }
			scope:host.location = {
				graphical_wilderness_mountains_trigger = yes
				exists = province_owner
			}
		}
		texture = "gfx/interface/illustrations/event_scenes/ep2_travel_mountains.dds"
		environment = "environment_travel_mountain_settlement"
		ambience = "event:/SFX/Events/Backgrounds/mountains_day"
	}
	background = { #mountains, unsettled
		trigger = {
			NOT = { scope:host.location = scope:activity.activity_location }
			scope:host.location = {
				graphical_wilderness_mountains_trigger = yes
				NOT = { exists = province_owner }
			}
		}
		texture = "gfx/interface/illustrations/event_scenes/mountains.dds"
		environment = "environment_event_mountains"
		ambience = "event:/SFX/Events/Backgrounds/mountains_day"
	}

	background = { #steppe, settled
		trigger = {
			NOT = { scope:host.location = scope:activity.activity_location }
			scope:host.location = {
				graphical_wilderness_steppe_trigger = yes
				exists = province_owner
			}
		}
		texture = "gfx/interface/illustrations/event_scenes/ep2_travel_steppe.dds"
		environment = "environment_travel_steppe_settlement"
		ambience = "event:/SFX/Events/Backgrounds/steppe_day"
	}
	background = { #steppe, unsettled
		trigger = {
			NOT = { scope:host.location = scope:activity.activity_location }
			scope:host.location = {
				graphical_wilderness_steppe_trigger = yes
				NOT = { exists = province_owner }
			}
		}
		texture = "gfx/interface/illustrations/event_scenes/steppe.dds"
		environment = "environment_event_steppe"
		ambience = "event:/SFX/Events/Backgrounds/steppe_day"
	}

	background = { #drylands (formerly desert)
		trigger = {
			NOT = { scope:host.location = scope:activity.activity_location }
			scope:host.location = {
				graphical_drylands_trigger = yes
			}
		}
		texture = "gfx/interface/illustrations/event_scenes/drylands.dds"
		environment = "environment_event_desert"
		ambience = "event:/SFX/Events/Backgrounds/desert_day"
	}

	background = { #wetlands
		trigger = {
			NOT = { scope:host.location = scope:activity.activity_location }
			scope:host.location = {
				graphical_wilderness_wetlands_trigger = yes
			}
		}
		texture = "gfx/interface/illustrations/event_scenes/bp1_wetlands.dds"
		environment = "environment_event_bp1_wetlands" 
		ambience = "event:/SFX/Events/Backgrounds/deciduous_forest_day"
	}

	background = { #jungle
		trigger = {
			NOT = { scope:host.location = scope:activity.activity_location }
			scope:host.location = {
				graphical_wilderness_jungle_trigger = yes
			}
		}
		texture = "gfx/interface/illustrations/event_scenes/bp1_jungle.dds"
		environment = "environment_event_bp1_jungle"
		ambience = "event:/SFX/Events/Backgrounds/deciduous_forest_day"
	}

	background = { #plains, settled
		trigger = {
			NOT = { scope:host.location = scope:activity.activity_location }
			scope:host.location = {
				graphical_plains_trigger = yes
				exists = province_owner
			}
		}
		texture = "gfx/interface/illustrations/event_scenes/ep2_travel_hills.dds"
		environment = "environment_travel_hills_settlement"
		ambience = "event:/SFX/Events/Backgrounds/fields_farms_day"
	}
	background = { #plains, unsettled
		trigger = {
			NOT = { scope:host.location = scope:activity.activity_location }
			scope:host.location = {
				graphical_plains_trigger = yes
				NOT = { exists = province_owner }
			}
		}
		texture = "gfx/interface/illustrations/event_scenes/bp1_plains.dds"
		environment = "environment_event_bp1_plains"
		ambience = "event:/SFX/Events/Backgrounds/fields_farms_day"
	}

	background = { #hills, settled
		trigger = {
			NOT = { scope:host.location = scope:activity.activity_location }
			scope:host.location = {
				graphical_hills_trigger = yes
				exists = province_owner
			}
		}
		texture = "gfx/interface/illustrations/event_scenes/ep2_travel_hills.dds"
		environment = "environment_travel_hills_settlement"
		ambience = "event:/SFX/Events/Backgrounds/fields_farms_day"
	}
	background = { #hills, unsettled
		trigger = {
			NOT = { scope:host.location = scope:activity.activity_location }
			scope:host.location = {
				graphical_hills_trigger = yes
				NOT = { exists = province_owner }
			}
		}
		texture = "gfx/interface/illustrations/event_scenes/bp1_hills.dds"
		environment = "environment_event_bp1_hills"
		ambience = "event:/SFX/Events/Backgrounds/fields_farms_day"
	}

	background = { #sea
		trigger = {
			NOT = { scope:host.location = scope:activity.activity_location }
			scope:host.location = {
				is_sea_province = yes
			}
		}
		texture = "gfx/interface/illustrations/event_scenes/fp1_ocean.dds"
		environment = "environment_event_fp1_ocean"
		ambience = "event:/DLC/FP1/SFX/Events/event_ocean_longship"
	}
	# End Travel
	background = {
		texture = "gfx/interface/illustrations/event_scenes/bp1_bonfire.dds"
		environment = "environment_event_bp1_bonfire" 
		ambience = "event:/SFX/Events/Backgrounds/burning_building"
	}

	window_characters = {

		guest = {
			camera = camera_body
			
			effect = {
				every_attending_character = {
					limit = {
						scope:host.location = scope:activity.activity_location
					}
					add_to_list = characters
				}
			}

			scripted_animation = {
				triggered_animation = {
					trigger = {
						scope:character = {
							NOT = { has_trait = craven }
						}
					}
					animation = { boredom fear lunatic paranoia drink scheme spymaster ecstasy }
				}
				animation = worry
			}
		}

		guest = {
			camera = camera_body
			
			effect = {
				every_attending_character = {
					limit = {
						scope:host.location = scope:activity.activity_location
					}
					add_to_list = characters
				}
			}

			scripted_animation = {
				triggered_animation = {
					trigger = {
						scope:character = {
							NOT = { has_trait = craven }
						}
					}
					animation = { boredom fear lunatic paranoia drink scheme spymaster ecstasy }
				}
				animation = worry
			}
		}
		
		host = {
			camera = camera_body
			
			effect = {
				if = {
					limit = {
						scope:host.location = scope:activity.activity_location
					}
					scope:host = {
						add_to_list = characters
					}
				}
			}

			scripted_animation = {
				triggered_animation = {
					trigger = { NOT = { has_trait = craven } }
					animation = { boredom fear lunatic paranoia drink scheme spymaster ecstasy }
				}
				animation = worry
			}
		}
		
		travel_host = {
			camera = camera_body
			
			effect = {
				if = {
					limit = {
						NOT = {
							scope:host.location = scope:activity.activity_location
						}
					}
					scope:host = {
						add_to_list = characters
					}
				}
			}

			scripted_animation = {
				triggered_animation = {
					trigger = {
						scope:character.location = { is_sea_province = yes }
					}
					animation = { idle }
				}
				triggered_animation = {
					trigger = { scope:character = { has_trait = impatient } }
					animation = { jockey_gallop }
				}
				animation = jockey_walk
			}
		}

		guest = {
			camera = camera_body
			
			effect = {
				every_attending_character = {
					limit = {
						scope:host.location = scope:activity.activity_location
					}
					add_to_list = characters
				}
			}

			scripted_animation = {
				triggered_animation = {
					trigger = { NOT = { has_trait = craven } }
					animation = { boredom fear lunatic paranoia drink scheme spymaster ecstasy }
				}
				animation = worry
			}
		}

		guest = {
			camera = camera_body
			
			effect = {
				every_attending_character = {
					limit = {
						scope:host.location = scope:activity.activity_location
					}
					add_to_list = characters
				}
			}

			scripted_animation = {
				triggered_animation = {
					trigger = { NOT = { has_trait = craven } }
					animation = { boredom fear lunatic paranoia drink scheme spymaster ecstasy }
				}
				animation = worry
			}
		}
	}
}
